<svg width="20" height="20" viewBox="0 0 20 20" fill="none" xmlns="http://www.w3.org/2000/svg">
<path d="M7.43586 4.2441C7.08183 4.2441 6.79483 4.53043 6.79483 4.88363C6.79483 5.23683 7.08183 5.52316 7.43586 5.52316H12.5641C12.9181 5.52316 13.2051 5.23683 13.2051 4.88363C13.2051 4.53043 12.9181 4.2441 12.5641 4.2441H7.43586Z" fill="#212121"/>
<path fill-rule="evenodd" clip-rule="evenodd" d="M9.95082 0.833252C8.17939 0.83324 6.78385 0.83323 5.69336 0.981086C4.57365 1.1329 3.68038 1.4512 2.97846 2.15908C2.27748 2.866 1.96314 3.76403 1.81304 4.88995C1.66661 5.98833 1.66661 7.39454 1.66663 9.18221V13.5293C1.66662 14.8148 1.66661 15.8326 1.74869 16.5989C1.8298 17.3561 2.00378 18.0393 2.50068 18.4962C2.89932 18.8627 3.40347 19.0938 3.94154 19.1552C4.61459 19.232 5.24303 18.9114 5.86208 18.4739C6.48853 18.0312 7.24847 17.3606 8.20726 16.5145L8.23846 16.487C8.68297 16.0948 8.98391 15.8301 9.23499 15.6469C9.47766 15.4698 9.62583 15.4059 9.75071 15.3808C9.91528 15.3477 10.0846 15.3477 10.2492 15.3808C10.3741 15.4059 10.5223 15.4698 10.7649 15.6469C11.016 15.8301 11.317 16.0948 11.7615 16.487L11.7927 16.5146C12.7515 17.3606 13.5114 18.0312 14.1378 18.4739C14.7569 18.9114 15.3853 19.232 16.0584 19.1552C16.5964 19.0938 17.1006 18.8627 17.4992 18.4962C17.9961 18.0393 18.1701 17.3561 18.2512 16.5989C18.3333 15.8326 18.3333 14.8148 18.3333 13.5293V9.18218C18.3333 7.39454 18.3333 5.98832 18.1869 4.88995C18.0368 3.76403 17.7224 2.866 17.0215 2.15908C16.3195 1.4512 15.4263 1.1329 14.3066 0.981086C13.2161 0.83323 11.8205 0.83324 10.0491 0.833252H9.95082ZM3.88987 3.05863C4.31446 2.63044 4.891 2.3807 5.86601 2.2485C6.86017 2.11371 8.16855 2.11232 9.99996 2.11232C11.8314 2.11232 13.1397 2.11371 14.1339 2.2485C15.1089 2.3807 15.6855 2.63044 16.11 3.05863C16.5356 3.48777 16.7845 4.07201 16.916 5.05859C17.0499 6.06286 17.0512 7.38398 17.0512 9.23034V13.4883C17.0512 14.8238 17.0504 15.7729 16.9764 16.463C16.9007 17.1702 16.761 17.4356 16.6304 17.5556C16.4306 17.7393 16.1793 17.854 15.9126 17.8844C15.742 17.9039 15.456 17.838 14.8789 17.4302C14.316 17.0323 13.6078 16.4086 12.6108 15.5289L12.5885 15.5092C12.172 15.1417 11.8266 14.8369 11.5217 14.6144C11.2029 14.3818 10.8814 14.203 10.5024 14.1269C10.1707 14.0602 9.82921 14.0602 9.49755 14.1269C9.11856 14.203 8.79704 14.3818 8.47825 14.6144C8.17332 14.8369 7.82792 15.1417 7.41146 15.5092L7.38908 15.5289C6.39216 16.4086 5.68395 17.0323 5.12103 17.4302C4.54394 17.838 4.25792 17.9039 4.08729 17.8844C3.82063 17.854 3.56934 17.7393 3.36951 17.5556C3.23896 17.4356 3.09923 17.1702 3.02348 16.463C2.94957 15.7729 2.94868 14.8238 2.94868 13.4883V9.23034C2.94868 7.38398 2.95001 6.06286 3.0839 5.05859C3.21542 4.07201 3.46434 3.48777 3.88987 3.05863Z" fill="#212121"/>
</svg>
