<svg width="24" height="24" viewBox="0 0 24 24" fill="none" xmlns="http://www.w3.org/2000/svg">
<g id="ic:round-wechat">
<path id="Vector" d="M15.85 8.14C16.24 8.14 16.62 8.17 16.99 8.22C16.31 5.25 13.19 3 9.43999 3C5.18999 3 1.73999 5.88 1.73999 9.43C1.73999 11.48 2.88999 13.29 4.67999 14.47L3.66999 16.5L6.42999 15.31C7.01999 15.52 7.63999 15.69 8.29999 15.78C8.20999 15.39 8.15999 14.99 8.15999 14.57C8.14999 11.03 11.6 8.14 15.85 8.14Z" fill="#9F0E0F"/>
<path id="Vector_2" d="M22.2599 14.5699C22.2599 11.7299 19.3899 9.42993 15.8499 9.42993C12.3099 9.42993 9.43994 11.7299 9.43994 14.5699C9.43994 17.4099 12.3099 19.7099 15.8499 19.7099C16.4299 19.7099 16.9899 19.6299 17.5199 19.5099L20.9799 20.9999L19.7799 18.5999C21.2799 17.6599 22.2599 16.2199 22.2599 14.5699Z" fill="#9F0E0F"/>
</g>
</svg>
