<svg width="24" height="24" viewBox="0 0 24 24" fill="none" xmlns="http://www.w3.org/2000/svg">
<g id="streamlinehq-interface-security-shield-1-          flat-48-ico_F2R31AHi375mIg8b" clip-path="url(#clip0_3_14030)">
<path id="Vector" d="M12 0.75C7.10665 0.75 4.47 1.10356 3.08838 1.41695C1.90561 1.68524 1.23145 2.68035 1.10595 3.74883C0.950725 5.0703 0.75 7.2839 0.75 9.9C0.75 9.99905 0.75029 10.0975 0.75085 10.1954C0.778485 15.0065 3.32368 19.5045 7.60765 21.7725C8.3747 22.1786 9.15305 22.5431 9.8878 22.8076C10.6132 23.0688 11.3434 23.25 12 23.25C12.6566 23.25 13.3868 23.0688 14.1122 22.8076C14.8469 22.5431 15.6253 22.1786 16.3923 21.7725C20.6763 19.5045 23.2215 15.0065 23.2491 10.1954C23.2497 10.0975 23.25 9.9991 23.25 9.9C23.25 7.2839 23.0493 5.0703 22.8941 3.74883C22.7686 2.68036 22.0944 1.68524 20.9116 1.41695C19.53 1.10356 16.8934 0.75 12 0.75Z" fill="#D3D3D3"/>
<path id="Vector_2" d="M12 4.25C9.4526 4.25 7.87755 4.40995 6.91435 4.58373C5.7095 4.8011 5.0297 5.8005 4.92407 6.86995C4.83844 7.73675 4.75 8.976 4.75 10.4C4.75 13.3051 6.1616 15.9781 8.51485 17.661C9.0825 18.0669 9.68295 18.4535 10.2571 18.7414C10.8116 19.0195 11.4268 19.25 12 19.25C12.5732 19.25 13.1884 19.0195 13.7429 18.7414C14.317 18.4535 14.9175 18.0669 15.4852 17.661C17.8384 15.9781 19.25 13.3051 19.25 10.4C19.25 8.976 19.1616 7.73675 19.076 6.86995C18.9703 5.8005 18.2905 4.8011 17.0856 4.58373C16.1224 4.40995 14.5474 4.25 12 4.25Z" fill="#8A8A8A"/>
</g>
<defs>
<clipPath id="clip0_3_14030">
<rect width="24" height="24" fill="white"/>
</clipPath>
</defs>
</svg>
